Tidy Text
…
3/7/2019

Tidy Text Philosophy

Tokenization

polyrating <- read_csv("polyrating.csv") %>% drop_na()

tokens <- polyrating %>%
  unnest_tokens(word,review) %>%
  select(word,everything())

tokens

## # A tibble: 6,853,285 x 12
##    word  Evaluations agg_rating material_clearly prof_name recognize_stude…
##    <chr> <chr>       <chr>                 <dbl> <chr>                <dbl>
##  1 real… 37          3.22/4.00              3.35 Abel, Ch…             3.27
##  2 inte… 37          3.22/4.00              3.35 Abel, Ch…             3.27
##  3 anyt… 37          3.22/4.00              3.35 Abel, Ch…             3.27
##  4 or    37          3.22/4.00              3.35 Abel, Ch…             3.27
##  5 1     37          3.22/4.00              3.35 Abel, Ch…             3.27
##  6 1     37          3.22/4.00              3.35 Abel, Ch…             3.27
##  7 i     37          3.22/4.00              3.35 Abel, Ch…             3.27
##  8 had   37          3.22/4.00              3.35 Abel, Ch…             3.27
##  9 dr    37          3.22/4.00              3.35 Abel, Ch…             3.27
## 10 abel  37          3.22/4.00              3.35 Abel, Ch…             3.27
## # … with 6,853,275 more rows, and 6 more variables: subject <chr>,
## #   class <chr>, standing <chr>, grade <chr>, reason <chr>, date <chr>

data(stop_words)

tokens <- tokens %>%
  anti_join(stop_words)

token_count <- tokens %>%
  count(word, sort = TRUE)

token_count

## # A tibble: 48,809 x 2
##    word           n
##    <chr>      <int>
##  1 class     109873
##  2 professor  25096
##  3 teacher    22629
##  4 tests      21359
##  5 students   20911
##  6 material   19865
##  7 time       19346
##  8 final      19048
##  9 easy       18087
## 10 homework   17765
## # … with 48,799 more rows
…
get_sentiments("afinn")

## # A tibble: 2,476 x 2
##    word       score
##    <chr>      <int>
##  1 abandon       -2
##  2 abandoned     -2
##  3 abandons      -2
##  4 abducted      -2
##  5 abduction     -2
##  6 abductions    -2
##  7 abhor         -3
##  8 abhorred      -3
##  9 abhorrent     -3
## 10 abhors        -3
## # … with 2,466 more rows

get_sentiments("bing")

## # A tibble: 6,788 x 2
##    word        sentiment
##    <chr>       <chr>    
##  1 2-faced     negative 
##  2 2-faces     negative 
##  3 a+          positive 
##  4 abnormal    negative 
##  5 abolish     negative 
##  6 abominable  negative 
##  7 abominably  negative 
##  8 abominate   negative 
##  9 abomination negative 
## 10 abort       negative 
## # … with 6,778 more rows

get_sentiments("nrc")

## # A tibble: 13,901 x 2
##    word        sentiment
##    <chr>       <chr>    
##  1 abacus      trust    
##  2 abandon     fear     
##  3 abandon     negative 
##  4 abandon     sadness  
##  5 abandoned   anger    
##  6 abandoned   fear     
##  7 abandoned   negative 
##  8 abandoned   sadness  
##  9 abandonment anger    
## 10 abandonment fear     
## # … with 13,891 more rows

library(stringr)
library(lubridate)

nrc_joy <- get_sentiments("nrc") %>%
  filter(sentiment == "joy")

tokens %>%
  inner_join(nrc_joy) %>%
  count(word, sort = TRUE)

## Joining, by = "word"

## # A tibble: 515 x 2
##    word             n
##    <chr>        <int>
##  1 pretty       12357
##  2 helpful       7113
##  3 teach         6107
##  4 fun           5114
##  5 pay           2717
##  6 found         2384
##  7 love          2227
##  8 excellent     1922
##  9 favorite      1875
## 10 entertaining  1466
## # … with 505 more rows
…
Sentiment Analysis

bing_word_counts <- tokens %>%
  inner_join(get_sentiments("bing")) %>%
  count(word, sentiment, sort = TRUE) %>%
  ungroup()

## Joining, by = "word"

bing_word_counts

## # A tibble: 3,965 x 3
##    word      sentiment     n
##    <chr>     <chr>     <int>
##  1 easy      positive  18087
##  2 hard      negative  15805
##  3 pretty    positive  12357
##  4 recommend positive   9490
##  5 nice      positive   8151
##  6 bad       negative   8061
##  7 difficult negative   7774
##  8 helpful   positive   7113
##  9 boring    negative   5460
## 10 fair      positive   5313
## # … with 3,955 more rows
…
custom_stop_words <- bind_rows(tibble(word = c("class"), 
                                          lexicon = c("custom")), 
                               stop_words)

custom_stop_words

## # A tibble: 1,150 x 2
##    word        lexicon
##    <chr>       <chr>  
##  1 class       custom 
##  2 a           SMART  
##  3 a's         SMART  
##  4 able        SMART  
##  5 about       SMART  
##  6 above       SMART  
##  7 according   SMART  
##  8 accordingly SMART  
##  9 across      SMART  
## 10 actually    SMART  
## # … with 1,140 more rows
…
tokens %>%
  semi_join(bingnegative) %>%
  group_by(subject) %>%
  summarize(negativewords = n()) %>%
  left_join(wordcounts, by = c("subject")) %>%
  mutate(ratio = negativewords/words) %>%
  ungroup() %>%
  arrange(desc(ratio))

## Joining, by = "word"

## # A tibble: 55 x 4
##    subject negativewords  words  ratio
##    <chr>           <int>  <int>  <dbl>
##  1 GBA               165   1362 0.121 
##  2 HUM               202   1884 0.107 
##  3 CSC             12416 124839 0.0995
##  4 PHIL             9503  96469 0.0985
##  5 MSC                46    480 0.0958
##  6 ARCE             1372  14752 0.0930
##  7 COMS            10520 116944 0.0900
##  8 AGB              2447  27248 0.0898
##  9 ECON             6727  74953 0.0897
## 10 MATE             1472  16698 0.0882
## # … with 45 more rows

tokens %>%
  semi_join(bingpositive) %>%
  group_by(subject) %>%
  summarize(positivewords = n()) %>%
  left_join(wordcounts, by = c("subject")) %>%
  mutate(ratio = positivewords/words) %>%
  ungroup() %>%
  arrange(desc(ratio))

## Joining, by = "word"

## # A tibble: 55 x 4
##    subject positivewords words  ratio
##    <chr>           <int> <int>  <dbl>
##  1 DSCI              435  3672 0.118 
##  2 SCI               470  4345 0.108 
##  3 WS                187  1740 0.107 
##  4 PSY              5527 52101 0.106 
##  5 FSN              1680 16276 0.103 
##  6 MSC                49   480 0.102 
##  7 TH               1352 13277 0.102 
##  8 SS                972  9919 0.0980
##  9 MU               1885 19260 0.0979
## 10 CRSC              510  5227 0.0976
## # … with 45 more rows
…
review_words <- tokens %>%
  count(subject, word, sort = TRUE) %>%
  ungroup()

total_words <- review_words %>%
  group_by(subject) %>%
  summarize(total = sum(n))

review_words <- left_join(review_words, total_words)

## Joining, by = "subject"

review_words

## # A tibble: 242,452 x 4
##    subject word         n  total
##    <chr>   <chr>    <int>  <int>
##  1 ENGL    class    10706 174657
##  2 BUS     class     9307 165068
##  3 MATH    class     9154 213750
##  4 COMS    class     6559 116944
##  5 PHYS    class     6487 144097
##  6 CSC     class     5010 124839
##  7 MATH    homework  4653 213750
##  8 CHEM    class     4574 117749
##  9 ECON    class     4398  74953
## 10 BIO     class     4061  86433
## # … with 242,442 more rows
…
freq_by_rank <- review_words %>%
                group_by(subject) %>%
                mutate(rank = row_number(),
                       term_freq = n/total)

freq_by_rank

## # A tibble: 242,452 x 6
## # Groups:   subject [55]
##    subject word         n  total  rank term_freq
##    <chr>   <chr>    <int>  <int> <int>     <dbl>
##  1 ENGL    class    10706 174657     1    0.0613
##  2 BUS     class     9307 165068     1    0.0564
##  3 MATH    class     9154 213750     1    0.0428
##  4 COMS    class     6559 116944     1    0.0561
##  5 PHYS    class     6487 144097     1    0.0450
##  6 CSC     class     5010 124839     1    0.0401
##  7 MATH    homework  4653 213750     2    0.0218
##  8 CHEM    class     4574 117749     1    0.0388
##  9 ECON    class     4398  74953     1    0.0587
## 10 BIO     class     4061  86433     1    0.0470
## # … with 242,442 more rows
…
review_tf_words <- review_words %>%
  bind_tf_idf(word, subject, n)

review_tf_words

## # A tibble: 242,452 x 7
##    subject word         n  total     tf    idf   tf_idf
##    <chr>   <chr>    <int>  <int>  <dbl>  <dbl>    <dbl>
##  1 ENGL    class    10706 174657 0.0613 0      0       
##  2 BUS     class     9307 165068 0.0564 0      0       
##  3 MATH    class     9154 213750 0.0428 0      0       
##  4 COMS    class     6559 116944 0.0561 0      0       
##  5 PHYS    class     6487 144097 0.0450 0      0       
##  6 CSC     class     5010 124839 0.0401 0      0       
##  7 MATH    homework  4653 213750 0.0218 0.0183 0.000399
##  8 CHEM    class     4574 117749 0.0388 0      0       
##  9 ECON    class     4398  74953 0.0587 0      0       
## 10 BIO     class     4061  86433 0.0470 0      0       
## # … with 242,442 more rows

review_tf_words %>%
  select(-total) %>%
  arrange(desc(tf_idf))

## # A tibble: 242,452 x 6
##    subject word             n     tf   idf tf_idf
##    <chr>   <chr>        <int>  <dbl> <dbl>  <dbl>
##  1 CPE     он             272 0.0182  4.01 0.0727
##  2 PHIL    class.please  1994 0.0207  3.31 0.0685
##  3 WS      lehr            36 0.0207  2.91 0.0602
##  4 MSC     medaris          6 0.0125  4.01 0.0501
##  5 GBA     tax             37 0.0272  1.81 0.0492
##  6 ENGR    gerfen          99 0.0163  2.91 0.0475
##  7 HUM     ninh            22 0.0117  4.01 0.0468
##  8 WGS     kalin           76 0.0114  4.01 0.0456
##  9 CPE     и              208 0.0139  2.91 0.0404
## 10 GBA     mock            49 0.0360  1.01 0.0364
## # … with 242,442 more rows
…
N-grams

poly_bigrams <- polyrating %>%
  unnest_tokens(bigram,review,token="ngrams",n=2) %>%
  select(bigram,everything())

poly_bigrams

## # A tibble: 6,791,065 x 12
##    bigram Evaluations agg_rating material_clearly prof_name
##    <chr>  <chr>       <chr>                 <dbl> <chr>    
##  1 416 w… 1           0.00/4.00                 0 Ramirez,…
##  2 with … 1           0.00/4.00                 0 Ramirez,…
##  3 ramir… 1           0.00/4.00                 0 Ramirez,…
##  4 is a   1           0.00/4.00                 0 Ramirez,…
##  5 a liv… 1           0.00/4.00                 0 Ramirez,…
##  6 livin… 1           0.00/4.00                 0 Ramirez,…
##  7 hell … 1           0.00/4.00                 0 Ramirez,…
##  8 this … 1           0.00/4.00                 0 Ramirez,…
##  9 class… 1           0.00/4.00                 0 Ramirez,…
## 10 under… 1           0.00/4.00                 0 Ramirez,…
## # … with 6,791,055 more rows, and 7 more variables:
## #   recognize_student_diff <dbl>, subject <chr>, class <chr>,
## #   standing <chr>, grade <chr>, reason <chr>, date <chr>

poly_bigrams %>%
  count(bigram, sort = TRUE)

## # A tibble: 797,705 x 2
##    bigram         n
##    <chr>      <int>
##  1 if you     38460
##  2 of the     28369
##  3 the class  26118
##  4 is a       23456
##  5 this class 23038
##  6 he is      20405
##  7 in the     19871
##  8 on the     17802
##  9 a lot      14958
## 10 for the    14000
## # … with 797,695 more rows
…
bigrams_separated <- poly_bigrams %>%
  separate(bigram, c("word1", "word2"), sep = " ")

bigrams_filtered <- bigrams_separated %>%
  filter(!word1 %in% custom_stop_words$word) %>%
  filter(!word2 %in% custom_stop_words$word)

bigram_counts <- bigrams_filtered %>% 
  count(word1, word2, sort = TRUE)

bigram_counts

## # A tibble: 221,421 x 3
##    word1    word2        n
##    <chr>    <chr>    <int>
##  1 office   hours    10552
##  2 his      class     6730
##  3 cal      poly      5524
##  4 his      lectures  4933
##  5 his      tests     4262
##  6 his      students  3990
##  7 her      class     3211
##  8 his      office    3091
##  9 class    he        2983
## 10 homework load      2447
## # … with 221,411 more rows

bigrams_united <- bigrams_filtered %>%
  unite(bigram, word1, word2, sep = " ")

bigrams_united

## # A tibble: 765,220 x 12
##    bigram Evaluations agg_rating material_clearly prof_name
##    <chr>  <chr>       <chr>                 <dbl> <chr>    
##  1 livin… 1           0.00/4.00                 0 Ramirez,…
##  2 title… 1           0.00/4.00                 0 Ramirez,…
##  3 publi… 1           0.00/4.00                 0 Ramirez,…
##  4 grant… 1           0.00/4.00                 0 Ramirez,…
##  5 commu… 1           0.00/4.00                 0 Ramirez,…
##  6 encom… 1           0.00/4.00                 0 Ramirez,…
##  7 hell … 1           0.00/4.00                 0 Ramirez,…
##  8 she w… 1           0.00/4.00                 0 Ramirez,…
##  9 worst… 1           0.00/4.00                 0 Ramirez,…
## 10 diffi… 1           0.00/4.00                 0 Ramirez,…
## # … with 765,210 more rows, and 7 more variables:
## #   recognize_student_diff <dbl>, subject <chr>, class <chr>,
## #   standing <chr>, grade <chr>, reason <chr>, date <chr>

trigrams_filtered <- polyrating %>%
  unnest_tokens(trigram, review, token = "ngrams", n = 3) %>%
  separate(trigram, c("word1", "word2", "word3"), sep = " ") %>%
  filter(!word1 %in%  custom_stop_words$word,
         !word2 %in% custom_stop_words$word,
         !word3 %in% custom_stop_words$word)

trigrams_filtered

## # A tibble: 241,626 x 14
##    Evaluations agg_rating material_clearly prof_name recognize_stude…
##    <chr>       <chr>                 <dbl> <chr>                <dbl>
##  1 1           0.00/4.00                 0 Ramirez,…                0
##  2 1           0.00/4.00                 0 Ramirez,…                0
##  3 1           0.00/4.00                 0 Ramirez,…                0
##  4 1           0.00/4.00                 0 Ramirez,…                0
##  5 1           0.00/4.00                 0 Ramirez,…                0
##  6 1           0.00/4.00                 0 Ramirez,…                0
##  7 1           0.00/4.00                 0 Ramirez,…                0
##  8 1           0.00/4.00                 0 Ramirez,…                0
##  9 1           0.00/4.00                 1 Potthast…                1
## 10 1           0.00/4.00                 1 Potthast…                1
## # … with 241,616 more rows, and 9 more variables: subject <chr>,
## #   class <chr>, standing <chr>, grade <chr>, reason <chr>, date <chr>,
## #   word1 <chr>, word2 <chr>, word3 <chr>

bigrams_filtered %>%
  filter(word1 == "she" | word2 == "she") %>%
  count(subject,word1,word2, sort = TRUE)

## # A tibble: 15,907 x 4
##    subject word1   word2      n
##    <chr>   <chr>   <chr>  <int>
##  1 CSC     shit    she      437
##  2 ENGL    class   she      211
##  3 ENGL    she     grades   182
##  4 COMS    she     grades   173
##  5 COMS    class   she      142
##  6 COMS    she     makes    127
##  7 MATH    class   she      124
##  8 BUS     class   she      116
##  9 ENGL    teacher she      115
## 10 ENGL    she     makes    105
## # … with 15,897 more rows

bigrams_filtered %>%
  filter(word1 == "he" | word2 == "he") %>%
  count(subject,word1,word2, sort = TRUE)

## # A tibble: 27,564 x 4
##    subject word1   word2       n
##    <chr>   <chr>   <chr>   <int>
##  1 MATH    class   he        392
##  2 MATH    he      makes     283
##  3 MATH    teacher he        279
##  4 MATH    he      teaches   250
##  5 PHYS    class   he        248
##  6 ENGL    class   he        232
##  7 BUS     class   he        230
##  8 MATH    he      assigns   192
##  9 BUS     he      makes     171
## 10 ENGL    he      grades    171
## # … with 27,554 more rows

trigrams_filtered %>%
  filter(word1 == "she" | word2 == "she"| word3 == "she") %>%
  count(subject,word1,word2,word3, sort = TRUE)

## # A tibble: 14,641 x 5
##    subject word1  word2    word3     n
##    <chr>   <chr>  <chr>    <chr> <int>
##  1 CSC     holy   shit     she     437
##  2 ENGL    office hours    she      48
##  3 MATH    office hours    she      48
##  4 CHEM    office hours    she      40
##  5 ENGL    her    class    she      36
##  6 ENGL    her    students she      34
##  7 COMS    her    class    she      33
##  8 ENGL    cal    poly     she      33
##  9 BIO     office hours    she      29
## 10 COMS    office hours    she      29
## # … with 14,631 more rows

trigrams_filtered %>%
  filter(word1 == "he" | word2 == "he"| word3 == "he") %>%
  count(subject,word1,word2,word3, sort = TRUE)

## # A tibble: 29,230 x 5
##    subject word1  word2   word3        n
##    <chr>   <chr>  <chr>   <chr>    <int>
##  1 MATH    office hours   he         167
##  2 PHYS    office hours   he          86
##  3 CHEM    office hours   he          85
##  4 MATH    cal    poly    he          63
##  5 STAT    office hours   he          57
##  6 MATH    he     assigns homework    50
##  7 MATH    his    class   he          49
##  8 ME      office hours   he          49
##  9 BUS     cal    poly    he          48
## 10 ENGL    office hours   he          48
## # … with 29,220 more rows
…
bigrams_separated %>%
  filter(word1 == "not") %>%
  count(word1, word2, sort = TRUE)

## # A tibble: 2,626 x 3
##    word1 word2     n
##    <chr> <chr> <int>
##  1 not   to     3666
##  2 not   a      3021
##  3 not   take   2438
##  4 not   the    1878
##  5 not   only   1242
##  6 not   too    1176
##  7 not   that   1175
##  8 not   be     1090
##  9 not   an      796
## 10 not   have    795
## # … with 2,616 more rows

AFINN <- get_sentiments("afinn")

AFINN

## # A tibble: 2,476 x 2
##    word       score
##    <chr>      <int>
##  1 abandon       -2
##  2 abandoned     -2
##  3 abandons      -2
##  4 abducted      -2
##  5 abduction     -2
##  6 abductions    -2
##  7 abhor         -3
##  8 abhorred      -3
##  9 abhorrent     -3
## 10 abhors        -3
## # … with 2,466 more rows

not_words <- bigrams_separated %>%
  filter(word1 == "not") %>%
  inner_join(AFINN, by = c(word2 = "word")) %>%
  count(word2, score, sort = TRUE) %>%
  ungroup()

not_words

## # A tibble: 398 x 3
##    word2     score     n
##    <chr>     <int> <int>
##  1 recommend     2   737
##  2 hard         -1   580
##  3 like          2   530
##  4 easy          1   426
##  5 bad          -3   407
##  6 worth         2   319
##  7 difficult    -1   275
##  8 help          2   243
##  9 helpful       2   218
## 10 good          3   202
## # … with 388 more rows
…
## The following object is masked from 'package:tibble':
## 
##     as_data_frame

## The following objects are masked from 'package:stats':
## 
##     decompose, spectrum

## The following object is masked from 'package:base':
## 
##     union

bigram_counts

## # A tibble: 221,421 x 3
##    word1    word2        n
##    <chr>    <chr>    <int>
##  1 office   hours    10552
##  2 his      class     6730
##  3 cal      poly      5524
##  4 his      lectures  4933
##  5 his      tests     4262
##  6 his      students  3990
##  7 her      class     3211
##  8 his      office    3091
##  9 class    he        2983
## 10 homework load      2447
## # … with 221,411 more rows
…
year_counts <- polyrating %>%
  unnest_tokens(word,review) %>%
  select(word,everything()) %>%
  count(date, word) %>%
  complete(date, word, fill = list(n = 0)) 
  
year_counts

## # A tibble: 11,636,025 x 3
##    date     word                          n
##    <chr>    <chr>                     <dbl>
##  1 Apr 2000 __                            0
##  2 Apr 2000 ___                           0
##  3 Apr 2000 ____                          0
##  4 Apr 2000 _____                         0
##  5 Apr 2000 ______                        0
##  6 Apr 2000 _______                       0
##  7 Apr 2000 ________                      0
##  8 Apr 2000 ___________________           0
##  9 Apr 2000 __________________reports     0
## 10 Apr 2000 _____________quizzes          0
## # … with 11,636,015 more rows
…
